Data 608 HW 1
…
revEmp2

## Warning: `...` is not empty.
## 
## We detected these problematic arguments:
## * `needs_dots`
## 
## These dots only exist to allow future extensions and should be empty.
## Did you misspecify an argument?

## # A tibble: 50 x 3
##    Industry                     statistic RevperEmp
##    <fct>                        <chr>         <dbl>
##  1 Advertising & Marketing      IndMean     306036.
##  2 Business Products & Services IndMean     359097.
##  3 Computer Hardware            IndMean     817702.
##  4 Construction                 IndMean     465682.
##  5 Consumer Products & Services IndMean     466068.
##  6 Education                    IndMean     296454.
##  7 Energy                       IndMean    1554656.
##  8 Engineering                  IndMean     201120.
##  9 Environmental Services       IndMean     283607.
## 10 Financial Services           IndMean     394231.
## # ... with 40 more rows
…
